…
``` r
big_cars <- big_epa_cars %>%
    filter(is.na(fuel_type2)) %>%
    select(id, make, model, year, eng_id, barrels08, city08, highway08, 
           co2, cylinders, displ, drive, fuel_cost08) %>%
    distinct() %>%
    set_names(c("id", "mfr", "model", "year", "engine_id", "barrels", 
                "city_mpg", "highway_mpg", "co2", "cylinders", "displ", 
                "drive", "fuel_cost"))

big_cars
```

    #> # A tibble: 41,804 x 13
    #>       id mfr   model  year engine_id barrels city_mpg highway_mpg   co2
    #>    <dbl> <chr> <chr> <dbl>     <dbl>   <dbl>    <dbl>       <dbl> <dbl>
    #>  1     1 Alfa… Spid…  1985      9011    15.7       19          25    -1
    #>  2    10 Ferr… Test…  1985     22020    30.0        9          14    -1
    #>  3   100 Dodge Char…  1985      2100    12.2       23          33    -1
    #>  4  1000 Dodge B150…  1985      2850    30.0       10          12    -1
    #>  5 10000 Suba… Lega…  1993     66031    17.3       17          23    -1
    #>  6 10001 Suba… Loya…  1993     66020    15.0       21          24    -1
    #>  7 10002 Suba… Loya…  1993     66020    13.2       22          29    -1
    #>  8 10003 Toyo… Coro…  1993     57005    13.7       23          26    -1
    #>  9 10004 Toyo… Coro…  1993     57005    12.7       23          31    -1
    #> 10 10005 Toyo… Coro…  1993     57006    13.2       23          30    -1
    #> # … with 41,794 more rows, and 4 more variables: cylinders <dbl>, displ <dbl>,
    #> #   drive <chr>, fuel_cost <dbl>
…
``` r
posteriors <- insight::get_parameters(stan_model) %>%
    as_tibble() %>%
    janitor::clean_names()
posteriors
```

    #> # A tibble: 4,000 x 4
    #>    intercept cylinders displ drive4_wheel_drive
    #>        <dbl>     <dbl> <dbl>              <dbl>
    #>  1      34.8   -0.0788 -2.91              -1.93
    #>  2      34.9   -0.103  -2.89              -2.01
    #>  3      34.8   -0.101  -2.88              -2.01
    #>  4      34.9   -0.116  -2.87              -1.92
    #>  5      34.8   -0.0944 -2.90              -1.99
    #>  6      34.9   -0.142  -2.83              -1.99
    #>  7      34.8   -0.0854 -2.90              -1.95
    #>  8      35.0   -0.130  -2.88              -1.88
    #>  9      34.9   -0.128  -2.84              -2.00
    #> 10      34.8   -0.108  -2.87              -1.92
    #> # … with 3,990 more rows
…
