…
``` r
m2_data <- passwords %>%
    mutate(password_len = scale2(password_len),
           char_password = str_detect(password, "[:alpha:]")) %>%
    select(strength, category, password_len, char_password)
m2_data
```

    #> # A tibble: 485 x 4
    #>    strength category            password_len char_password
    #>       <dbl> <chr>                      <dbl> <lgl>        
    #>  1        8 password-related           1.73  TRUE         
    #>  2        4 simple-alphanumeric       -0.172 FALSE        
    #>  3        4 simple-alphanumeric        1.73  FALSE        
    #>  4        4 simple-alphanumeric       -2.07  FALSE        
    #>  5        8 simple-alphanumeric       -0.172 TRUE         
    #>  6        4 simple-alphanumeric       -1.12  FALSE        
    #>  7        8 animal                    -0.172 TRUE         
    #>  8        4 sport                      1.73  TRUE         
    #>  9        7 sport                      1.73  TRUE         
    #> 10        8 password-related           0.778 TRUE         
    #> # … with 475 more rows
