…
    #> See spec(...) for full column specifications.

## EDA

``` r
naniar::miss_var_summary(xmen_characters)
```

    #> # A tibble: 34 x 3
    #>    variable                                      n_miss pct_miss
    #>    <chr>                                          <int>    <dbl>
    #>  1 shared_bed_with_which_character                 4209    100  
    #>  2 shared_room_domestically_with_which_character   4209    100  
    #>  3 shared_undress                                  4205     99.9
    #>  4 dancing_with_which_character                    4195     99.7
    #>  5 on_a_date_with_which_character                  4190     99.5
    #>  6 expresses_reluctance_to_fight                   4189     99.5
    #>  7 arm_in_arm_with_which_character                 4173     99.1
    #>  8 explicitly_states_i_love_you_to_whom            4157     98.8
    #>  9 hand_holding_with_which_character               4121     97.9
    #> 10 kiss_with_which_character                       4094     97.3
    #> # … with 24 more rows

``` r
xmen_issue_data <- xmen_characters %>%
    select(issue:number_of_kills_non_humans, 
           visible_tears_number_of_intances, 
           depicted_eating_food)
xmen_issue_data
```

    #> # A tibble: 4,209 x 15
    #>    issue character rendered_unconc… captured declared_dead redressed depowered
    #>    <dbl> <chr>                <dbl>    <dbl>         <dbl>     <dbl>     <dbl>
    #>  1    97 Professo…                0        0             0         0         0
    #>  2    97 Wolverin…                0        0             0         0         0
    #>  3    97 Cyclops …                0        0             0         0         0
    #>  4    97 Marvel G…                1        0             0         0         0
    #>  5    97 Storm = …                0        0             0         0         0
    #>  6    97 Colossus…                0        0             0         0         0
    #>  7    97 Nightcra…                0        0             0         0         0
    #>  8    97 Banshee …                0        0             0         0         0
    #>  9    97 Angel = …                0        0             0         0         0
    #> 10    97 Ariel/Sp…                0        0             0         0         0
    #> # … with 4,199 more rows, and 8 more variables: clothing_torn <dbl>,
    #> #   subject_to_torture <dbl>, quits_team <dbl>, surrenders <dbl>,
    #> #   number_of_kills_humans <dbl>, number_of_kills_non_humans <dbl>,
    #> #   visible_tears_number_of_intances <dbl>, depicted_eating_food <dbl>
…
    #> # A tibble: 0 x 3
    #> # … with 3 variables: issue <dbl>, character <chr>, n <int>

``` r
xmen_data <- xmen_issue_data %>%
    select(-issue) %>%
    group_by(character) %>%
    summarise_if(is.numeric, sum) %>%
    ungroup()

xmen_data
```

    #> # A tibble: 23 x 14
    #>    character rendered_unconc… captured declared_dead redressed depowered
    #>    <chr>                <dbl>    <dbl>         <dbl>     <dbl>     <dbl>
    #>  1 Angel = …                3        5             1         1         2
    #>  2 Ariel/Sp…               19        7             2         2         6
    #>  3 Banshee …               10        8             1         0         6
    #>  4 Binary/M…                5        3             1         1         0
    #>  5 Colossus…               26       15             3         5        13
    #>  6 Cyclops …               16       13             7         5        10
    #>  7 Dazzler …                8        1             4         1         1
    #>  8 Forge = …                0        3             0         0         0
    #>  9 Gambit =…                2        2             0         0         0
    #> 10 Havok = …                5        2             2         0         1
    #> # … with 13 more rows, and 8 more variables: clothing_torn <dbl>,
    #> #   subject_to_torture <dbl>, quits_team <dbl>, surrenders <dbl>,
    #> #   number_of_kills_humans <dbl>, number_of_kills_non_humans <dbl>,
    #> #   visible_tears_number_of_intances <dbl>, depicted_eating_food <dbl>
…
