…
grosses <- read_csv(
    'https://raw.githubusercontent.com/rfordatascience/tidytuesday/master/data/2020/2020-04-28/grosses.csv',
    col_types = grosses_cols
) %>%
    janitor::clean_names()

grosses
```

    #> # A tibble: 47,524 x 14
    #>    week_ending week_number weekly_gross_ov… show  theatre weekly_gross
    #>    <date>            <dbl>            <dbl> <chr> <chr>          <dbl>
    #>  1 1985-06-09            1          3915937 42nd… St. Ja…       282368
    #>  2 1985-06-09            1          3915937 A Ch… Sam S.…       222584
    #>  3 1985-06-09            1          3915937 Aren… Brooks…       249272
    #>  4 1985-06-09            1          3915937 Arms… Circle…        95688
    #>  5 1985-06-09            1          3915937 As Is Lyceum…        61059
    #>  6 1985-06-09            1          3915937 Big … Eugene…       255386
    #>  7 1985-06-09            1          3915937 Bilo… Neil S…       306839
    #>  8 1985-06-09            1          3915937 Brig… 46th S…       107392
    #>  9 1985-06-09            1          3915937 Cats  Winter…       461880
    #> 10 1985-06-09            1          3915937 Doub… Ritz T…        47452
    #> # … with 47,514 more rows, and 8 more variables: potential_gross <dbl>,
    #> #   avg_ticket_price <dbl>, top_ticket_price <dbl>, seats_sold <dbl>,
    #> #   seats_in_theatre <dbl>, pct_capacity <dbl>, performances <dbl>,
    #> #   previews <dbl>
…
