…
``` r
gdpr_violations %<>%
    janitor::clean_names() %>% 
    select(-picture, -source) %>%
    mutate(date = ifelse(date == "01/01/1970", NA_character_, date),
           date = lubridate::mdy(date)) %>%
    rename(country = name)
```

``` r
gdpr_violations
```

    #> # A tibble: 250 x 9
    #>       id country  price authority date       controller article_violated type 
    #>    <dbl> <chr>    <dbl> <chr>     <date>     <chr>      <chr>            <chr>
    #>  1     1 Poland    9380 Polish N… 2019-10-18 Polish Ma… Art. 28 GDPR     Non-…
    #>  2     2 Romania   2500 Romanian… 2019-10-17 UTTIS IND… Art. 12 GDPR|Ar… Info…
    #>  3     3 Spain    60000 Spanish … 2019-10-16 Xfera Mov… Art. 5 GDPR|Art… Non-…
    #>  4     4 Spain     8000 Spanish … 2019-10-16 Iberdrola… Art. 31 GDPR     Fail…
    #>  5     5 Romania 150000 Romanian… 2019-10-09 Raiffeise… Art. 32 GDPR     Fail…
    #>  6     6 Romania  20000 Romanian… 2019-10-09 Vreau Cre… Art. 32 GDPR|Ar… Fail…
    #>  7     7 Greece  200000 Hellenic… 2019-10-07 Telecommu… Art. 5 (1) c) G… Fail…
    #>  8     8 Greece  200000 Hellenic… 2019-10-07 Telecommu… Art. 21 (3) GDP… Fail…
    #>  9     9 Spain    30000 Spanish … 2019-10-01 Vueling A… Art. 5 GDPR|Art… Non-…
    #> 10    10 Romania   9000 Romanian… 2019-09-26 Inteligo … Art. 5 (1) a) G… Non-…
    #> # … with 240 more rows, and 1 more variable: summary <chr>
…
    #> fit models... done.
    #> calculate metrics:
    #>   Griffiths2004... done.
    #>   CaoJuan2009... done.
    #>   Arun2010... done.
    #>   Deveaud2014... done.

``` r
as_tibble(gdpr_lda_ksearch)
```

    #> # A tibble: 33 x 5
    #>    topics Griffiths2004 CaoJuan2009 Arun2010 Deveaud2014
    #>     <dbl>         <dbl>       <dbl>    <dbl>       <dbl>
    #>  1     98       -34530.       0.242     83.0       0.353
    #>  2     95       -34475.       0.226     81.5       0.368
    #>  3     92       -34408.       0.225     82.5       0.378
    #>  4     89       -34386.       0.224     83.8       0.389
    #>  5     86       -34235.       0.208     82.6       0.409
    #>  6     83       -34237.       0.222     83.7       0.414
    #>  7     80       -34215.       0.204     84.1       0.428
    #>  8     77       -34313.       0.216     86.2       0.433
    #>  9     74       -34190.       0.197     85.8       0.453
    #> 10     71       -34131.       0.206     86.1       0.462
    #> # … with 23 more rows
…
``` r
perplexity(gdpr_lda)
```

    #> [1] 191.9304

``` r
gdpr_lda_tidy <- tidy(gdpr_lda)
gdpr_lda_tidy
```

    #> # A tibble: 20,475 x 3
    #>    topic term       beta
    #>    <int> <chr>     <dbl>
    #>  1     1 40.000 2.16e- 3
    #>  2     2 40.000 3.64e-65
    #>  3     3 40.000 3.03e-65
    #>  4     4 40.000 3.41e-65
    #>  5     5 40.000 3.76e-65
    #>  6     6 40.000 3.12e-65
    #>  7     7 40.000 4.18e-65
    #>  8     8 40.000 3.43e-65
    #>  9     9 40.000 2.59e-65
    #> 10    10 40.000 4.15e-65
    #> # … with 20,465 more rows
…
``` r
gdpr_lda_gamma <- tidy(gdpr_lda, matrix = "gamma")
gdpr_lda_gamma
```

    #> # A tibble: 3,159 x 3
    #>    document topic    gamma
    #>    <chr>    <int>    <dbl>
    #>  1 1            1 0.990   
    #>  2 2            1 0.000931
    #>  3 3            1 0.00262 
    #>  4 4            1 0.00112 
    #>  5 5            1 0.00125 
    #>  6 6            1 0.00152 
    #>  7 7            1 0.00234 
    #>  8 8            1 0.00234 
    #>  9 9            1 0.00119 
    #> 10 10           1 0.00152 
    #> # … with 3,149 more rows
…
