…
eruption_data <- eruptions %>%
    filter(!is.na(vei) & !is.na(eruption_category)) %>%
    filter(eruption_category == "Confirmed Eruption") %>%
    filter(!is.na(start_day) & start_day > 0 & start_year > 1000) %>%
    filter(!is.na(end_day) & end_day > 0) %>%
    mutate(start_date = paste(start_year, start_month, start_day, sep = "-"),
           start_date = ymd(start_date),
           end_date = paste(end_year, end_month, end_day, sep = "-"),
           end_date = ymd(end_date),
           duration = end_date - start_date) %>%
    select(volcano_number:vei, latitude:duration)
eruption_data
```

    #> # A tibble: 3,178 x 11
    #>    volcano_number volcano_name eruption_number eruption_catego… area_of_activity
    #>             <dbl> <chr>                  <dbl> <chr>            <chr>           
    #>  1         241040 Whakaari/Wh…           22338 Confirmed Erupt… 1978/90 Crater …
    #>  2         284096 Nishinoshima           22340 Confirmed Erupt… <NA>            
    #>  3         243070 Lateiki                22334 Confirmed Erupt… <NA>            
    #>  4         290240 Sarychev Pe…           22320 Confirmed Erupt… <NA>            
    #>  5         263310 Tengger Cal…           22306 Confirmed Erupt… Bromo           
    #>  6         256010 Tinakula               22313 Confirmed Erupt… <NA>            
    #>  7         267020 Karangetang            22294 Confirmed Erupt… <NA>            
    #>  8         357040 Planchon-Pe…           22297 Confirmed Erupt… <NA>            
    #>  9         282050 Kuchinoerab…           22296 Confirmed Erupt… <NA>            
    #> 10         268060 Gamalama               22295 Confirmed Erupt… <NA>            
    #> # … with 3,168 more rows, and 6 more variables: vei <dbl>, latitude <dbl>,
    #> #   longitude <dbl>, start_date <date>, end_date <date>, duration <drtn>
…
