…
``` r
per_issue <- character_visualization %>%
    group_by(issue) %>%
    summarise(across(speech:depicted, sum)) %>%
    ungroup()

per_issue
```

    #> # A tibble: 196 x 5
    #>    issue speech thought narrative depicted
    #>    <dbl>  <dbl>   <dbl>     <dbl>    <dbl>
    #>  1    97    146      13        71      168
    #>  2    98    172       9        29      180
    #>  3    99    105      22        29      124
    #>  4   100    141      28         7      122
    #>  5   101    158      27        58      191
    #>  6   102     78      27        33      133
    #>  7   103     91       6        25      121
    #>  8   104    142      15        25      165
    #>  9   105     83      12        24      128
    #> 10   106     20       6        20       16
    #> # … with 186 more rows
…
Using the `add_fitted_draws()` function from ‘tidybayes’, 200
predictions were made for the artificial data.

``` r
pred_data <- locations_joined %>%
    summarise(across(issue:narrative, mean)) %>%
    mutate(depicted = list(modelr::seq_range(locations_joined$depicted, n = 100))) %>%
    unnest(depicted) %>%
    add_fitted_draws(bayes_mansion, n = 200)

pred_data
```

    #> # A tibble: 20,000 x 10
    #> # Groups:   issue, speech, thought, narrative, depicted, .row [100]
    #>    issue speech thought narrative depicted  .row .chain .iteration .draw .value
    #>    <dbl>  <dbl>   <dbl>     <dbl>    <dbl> <int>  <int>      <int> <int>  <dbl>
    #>  1  189.   143.    44.2      48.7       16     1     NA         NA     1 0.125 
    #>  2  189.   143.    44.2      48.7       16     1     NA         NA     6 0.143 
    #>  3  189.   143.    44.2      48.7       16     1     NA         NA    15 0.117 
    #>  4  189.   143.    44.2      48.7       16     1     NA         NA    47 0.0890
    #>  5  189.   143.    44.2      48.7       16     1     NA         NA    86 0.272 
    #>  6  189.   143.    44.2      48.7       16     1     NA         NA   118 0.101 
    #>  7  189.   143.    44.2      48.7       16     1     NA         NA   131 0.158 
    #>  8  189.   143.    44.2      48.7       16     1     NA         NA   133 0.279 
    #>  9  189.   143.    44.2      48.7       16     1     NA         NA   140 0.0990
    #> 10  189.   143.    44.2      48.7       16     1     NA         NA   154 0.109 
    #> # … with 19,990 more rows
…
