…
    #> # A tibble: 0 x 2
    #> # … with 2 variables: track_id <chr>, n <int>

``` r
# Removing all playlist info except for genre does not remove all duplicates.
spotify_songs %>%
    select(-c(playlist_name, playlist_id, playlist_subgenre)) %>%
    distinct() %>%
    count(track_id) %>%
    filter(n > 1)
```

    #> # A tibble: 1,687 x 2
    #>    track_id                   n
    #>    <chr>                  <int>
    #>  1 00qOE7OjRl0BpYiCiweZB2     2
    #>  2 00QyLmjxaSEE8qIZQjBXBj     3
    #>  3 00WIXhVVhswHuS6dlkScuw     2
    #>  4 01iyINEYgPQ7ThMZuHUsqS     2
    #>  5 0240T0gP9w6xEgIciBrfVF     2
    #>  6 02CygBCQOIyEuhNZqHHcNx     2
    #>  7 02itaCXOdC54J0ISjqqFAp     2
    #>  8 02M6vucOvmRfMxTXDUwRXu     3
    #>  9 04aAxqtGp5pv12UXAg4pkq     2
    #> 10 04KTF78FFg8sOHC1BADqbY     2
    #> # … with 1,677 more rows
…
``` r
spotify_recipe <- recipe(playlist_genre ~ ., data = spotify_data_train) %>%
    update_role(track_id, new_role = "ID") %>%
    step_corr(all_predictors())

spotify_prep <- prep(spotify_recipe)
spotify_juiced <- juice(spotify_prep)

spotify_juiced
```

    #> # A tibble: 7,917 x 13
    #>    track_id danceability energy   key loudness  mode speechiness acousticness
    #>    <fct>           <dbl>  <dbl> <dbl>    <dbl> <dbl>       <dbl>        <dbl>
    #>  1 555ix1g…        0.566  0.666     5    -5.74     0      0.163      0.0161  
    #>  2 6HTJZ0T…        0.805  0.858     0    -3.07     1      0.105      0.194   
    #>  3 7H4XjkO…        0.695  0.755     7    -6.87     0      0.0386     0.134   
    #>  4 62E8JJR…        0.658  0.863     7    -3.58     0      0.0352     0.287   
    #>  5 2RruTqd…        0.802  0.611     8    -7.52     1      0.0601     0.356   
    #>  6 7GsMKEG…        0.667  0.867    11    -5.56     0      0.0466     0.046   
    #>  7 0gT1wHT…        0.589  0.838     5    -4.07     0      0.0457     0.00807 
    #>  8 4mNOezZ…        0.654  0.803    10    -5.14     1      0.0544     0.254   
    #>  9 1xh59Kp…        0.399  0.53     10    -7.18     0      0.0532     0.479   
    #> 10 5tXg9mq…        0.712  0.61      6    -9.33     0      0.0376     0.000892
    #> # … with 7,907 more rows, and 5 more variables: instrumentalness <dbl>,
    #> #   liveness <dbl>, valence <dbl>, tempo <dbl>, playlist_genre <fct>
…
``` r
spotify_tune_grid <- grid_regular(
    mtry(range = c(2, 6)),
    min_n(range = c(5, 15)),
    levels = 5
)

spotify_tune_grid
```

    #> # A tibble: 25 x 2
    #>     mtry min_n
    #>    <int> <int>
    #>  1     2     5
    #>  2     3     5
    #>  3     4     5
    #>  4     5     5
    #>  5     6     5
    #>  6     2     7
    #>  7     3     7
    #>  8     4     7
    #>  9     5     7
    #> 10     6     7
    #> # … with 15 more rows
…
