…
``` r
caribou_indiv
```

    #> # A tibble: 286 x 14
    #>    animal_id sex   life_stage pregnant with_calf death_cause study_site
    #>    <chr>     <chr> <chr>      <lgl>    <lgl>     <chr>       <chr>     
    #>  1 HR_151.5… f     <NA>       NA       NA        <NA>        Hart Rang…
    #>  2 GR_C04    f     <NA>       NA       NA        <NA>        Graham    
    #>  3 GR_C03    f     <NA>       NA       NA        <NA>        Graham    
    #>  4 HR_151.8… f     <NA>       NA       NA        <NA>        Hart Rang…
    #>  5 HR_151.7… f     <NA>       NA       NA        <NA>        Hart Rang…
    #>  6 HR_151.7… f     <NA>       NA       NA        <NA>        Hart Rang…
    #>  7 GR_C18    f     <NA>       NA       NA        <NA>        Graham    
    #>  8 KE_car120 f     <NA>       NA       NA        <NA>        Kennedy   
    #>  9 KE_car118 f     <NA>       NA       NA        Unknown     Kennedy   
    #> 10 HR_151.5… f     <NA>       NA       NA        <NA>        Hart Rang…
    #> # … with 276 more rows, and 7 more variables: deploy_on_longitude <dbl>,
    #> #   deploy_on_latitude <dbl>, deploy_on_comments <chr>,
    #> #   deploy_off_longitude <dbl>, deploy_off_latitude <dbl>,
    #> #   deploy_off_type <chr>, deploy_off_comments <chr>
…
``` r
caribou_locations
```

    #> # A tibble: 249,450 x 7
    #>      event_id animal_id study_site season timestamp           longitude latitude
    #>         <dbl> <chr>     <chr>      <chr>  <dttm>                  <dbl>    <dbl>
    #>  1 2259197332 GR_C01    Graham     Winter 2001-02-21 05:00:00     -123.     56.2
    #>  2 2259197333 GR_C01    Graham     Winter 2001-02-21 09:00:00     -123.     56.2
    #>  3 2259197334 GR_C01    Graham     Winter 2001-02-21 13:00:00     -123.     56.2
    #>  4 2259197335 GR_C01    Graham     Winter 2001-02-21 17:01:00     -123.     56.2
    #>  5 2259197336 GR_C01    Graham     Winter 2001-02-21 21:00:00     -123.     56.2
    #>  6 2259197337 GR_C01    Graham     Winter 2001-02-22 01:00:00     -123.     56.2
    #>  7 2259197338 GR_C01    Graham     Winter 2001-02-22 05:00:00     -123.     56.2
    #>  8 2259197339 GR_C01    Graham     Winter 2001-02-22 09:00:00     -123.     56.2
    #>  9 2259197340 GR_C01    Graham     Winter 2001-02-22 13:00:00     -123.     56.2
    #> 10 2259197341 GR_C01    Graham     Winter 2001-02-22 17:00:00     -123.     56.2
    #> # … with 249,440 more rows
…
``` r
n_distinct(caribou_locations$animal_id)
```

    #> [1] 260

``` r
caribou_locations %>%
    count(animal_id, sort = TRUE)
```

    #> # A tibble: 260 x 2
    #>    animal_id     n
    #>    <chr>     <int>
    #>  1 QU_car143  4885
    #>  2 NA_car133  4700
    #>  3 NA_car132  4247
    #>  4 MO_car150  3973
    #>  5 SC_car171  3510
    #>  6 QU_car163  3423
    #>  7 BP_car145  3226
    #>  8 QU_car159  3193
    #>  9 QU_car172  3164
    #> 10 MO_car147  3106
    #> # … with 250 more rows
…
