…
``` r
rap_data <- rap_rankings %>%
    select(-(n1:n5)) %>%
    left_join(rap_polls_select, by = c("title", "artist")) %>%
    mutate(title = ifelse(
        title == "Hip Hop", glue("{title} ({artist})"), title
    ))

rap_data
```

    ## # A tibble: 535 x 11
    ##       id title artist  year gender points     n critic_rank critic_name
    ##    <dbl> <chr> <chr>  <dbl> <chr>   <dbl> <dbl>       <dbl> <chr>      
    ##  1     1 Juicy The N…  1994 male      140    18           1 Insanul Ah…
    ##  2     1 Juicy The N…  1994 male      140    18           2 Ivie Ani   
    ##  3     1 Juicy The N…  1994 male      140    18           3 Andrew Bar…
    ##  4     1 Juicy The N…  1994 male      140    18           2 Harley Bro…
    ##  5     1 Juicy The N…  1994 male      140    18           1 Paul Cantor
    ##  6     1 Juicy The N…  1994 male      140    18           1 Georgette …
    ##  7     1 Juicy The N…  1994 male      140    18           2 Andy Cohn  
    ##  8     1 Juicy The N…  1994 male      140    18           3 Common     
    ##  9     1 Juicy The N…  1994 male      140    18           5 Dan Green  
    ## 10     1 Juicy The N…  1994 male      140    18           1 Nadia Jae  
    ## # … with 525 more rows, and 2 more variables: critic_rols <chr>,
    ## #   critic_country <chr>
…
