…
``` r
d %>%
  count(runner, sexM, name = "total_num_runs") %>%
  filter(total_num_runs > 2)
```

    #> # A tibble: 10,788 × 3
    #>    runner                    sexM  total_num_runs
    #>    <chr>                     <lgl>          <int>
    #>  1 ?al-saidi-saleh           TRUE               3
    #>  2 aaron-fredo               TRUE               3
    #>  3 aarons-jamie              FALSE              3
    #>  4 abadie-jean-philippe      TRUE               4
    #>  5 abarca-cedric             TRUE               3
    #>  6 abbott-jerry              TRUE               8
    #>  7 abbs-alan                 TRUE               4
    #>  8 abby-mckee                FALSE              5
    #>  9 abdallah-said-toihir      TRUE               5
    #> 10 abdul-rahim-khairul-anuar TRUE               4
    #> # … with 10,778 more rows
