…
    #> See spec(...) for full column specifications.

## EDA

``` r
naniar::miss_var_summary(coffee_ratings)
```

    #> # A tibble: 44 x 3
    #>    variable             n_miss pct_miss
    #>    <chr>                 <int>    <dbl>
    #>  1 lot_number             1063     79.4
    #>  2 farm_name               359     26.8
    #>  3 mill                    315     23.5
    #>  4 producer                231     17.3
    #>  5 altitude_low_meters     230     17.2
    #>  6 altitude_high_meters    230     17.2
    #>  7 altitude_mean_meters    230     17.2
    #>  8 altitude                226     16.9
    #>  9 variety                 226     16.9
    #> 10 color                   218     16.3
    #> # … with 34 more rows
…
