…
modeling_data1 <- ipf_lifts %>%
    select(name, sex, equipment, age, bodyweight_kg, best3bench_kg, date) %>%
    filter_all(all_vars(!is.na(.))) %>%
    mutate(sex = as.numeric(sex == "M"),
           age = scale2(age),
           bodyweight_kg = scale2(bodyweight_kg),
           year = lubridate::year(date)) %>%
    select(-date)

modeling_data1
```

    #> # A tibble: 35,889 x 7
    #>    name                sex equipment      age bodyweight_kg best3bench_kg  year
    #>    <chr>             <dbl> <chr>        <dbl>         <dbl>         <dbl> <dbl>
    #>  1 David Mannering       1 Single-ply -0.727         -0.533          132.  1985
    #>  2 Eddy Pengelly         1 Single-ply  0.0550        -0.533          158.  1985
    #>  3 Nanda Talambanua      1 Single-ply -1.03          -0.533          110   1985
    #>  4 Wilfried Dörner       1 Single-ply -0.149         -0.533          140   1985
    #>  5 Claudio Ardini        1 Single-ply -0.217          0.370          215   1985
    #>  6 Tokiharu Maeda        1 Single-ply  0.395          0.370          170   1985
    #>  7 Andrzej Stanaszek     1 Raw        -0.897         -1.19           158.  1993
    #>  8 Christian Klein       1 Single-ply -0.829         -1.17           125   1993
    #>  9 Štefan Koľšovský      1 Single-ply -0.217         -1.19           115   1993
    #> 10 Svein Walstad         1 Single-ply -0.625         -1.27           102.  1993
    #> # … with 35,879 more rows
…
pred_data
```

    #> # A tibble: 60,000 x 4
    #>      sex   age bodyweight_kg equipment 
    #>    <int> <dbl>         <dbl> <chr>     
    #>  1     0  -2.5         -2    Single-ply
    #>  2     0  -2.5         -2    Raw       
    #>  3     0  -2.5         -2    Wraps     
    #>  4     0  -2.5         -1.92 Single-ply
    #>  5     0  -2.5         -1.92 Raw       
    #>  6     0  -2.5         -1.92 Wraps     
    #>  7     0  -2.5         -1.85 Single-ply
    #>  8     0  -2.5         -1.85 Raw       
    #>  9     0  -2.5         -1.85 Wraps     
    #> 10     0  -2.5         -1.77 Single-ply
    #> # … with 59,990 more rows
…
