…
    #> See spec(...) for full column specifications.

``` r
game_goals
```

    #> # A tibble: 49,384 x 25
    #>    player season  rank date       game_num age   team  at    opp   location
    #>    <chr>   <dbl> <dbl> <date>        <dbl> <chr> <chr> <chr> <chr> <chr>   
    #>  1 Alex …   2006     1 2005-10-05        1 20-0… WSH   <NA>  CBJ   Home    
    #>  2 Alex …   2006     2 2005-10-07        2 20-0… WSH   <NA>  ATL   Home    
    #>  3 Alex …   2006     3 2005-10-08        3 20-0… WSH   @     ATL   Away    
    #>  4 Alex …   2006     4 2005-10-10        4 20-0… WSH   <NA>  NYR   Home    
    #>  5 Alex …   2006     5 2005-10-12        5 20-0… WSH   @     CAR   Away    
    #>  6 Alex …   2006     6 2005-10-13        6 20-0… WSH   <NA>  NYI   Home    
    #>  7 Alex …   2006     7 2005-10-16        7 20-0… WSH   <NA>  TBL   Home    
    #>  8 Alex …   2006     8 2005-10-20        8 20-0… WSH   @     FLA   Away    
    #>  9 Alex …   2006     9 2005-10-22        9 20-0… WSH   <NA>  CAR   Home    
    #> 10 Alex …   2006    10 2005-10-26       10 20-0… WSH   @     BUF   Away    
    #> # … with 49,374 more rows, and 15 more variables: outcome <chr>, goals <dbl>,
    #> #   assists <dbl>, points <dbl>, plus_minus <dbl>, penalty_min <dbl>,
    #> #   goals_even <dbl>, goals_powerplay <dbl>, goals_short <dbl>,
    #> #   goals_gamewinner <dbl>, assists_even <dbl>, assists_powerplay <dbl>,
    #> #   assists_short <dbl>, shots <dbl>, shot_percent <dbl>
…
