…
    ## Parsed with column specification:
    ## cols(
    ##   year = col_double(),
    ##   brewer_size = col_character(),
    ##   n_of_brewers = col_double(),
    ##   total_barrels = col_double(),
    ##   taxable_removals = col_double(),
    ##   total_shipped = col_double()
    ## )

``` r
brewer_size
```

    ## # A tibble: 137 x 6
    ##     year brewer_size   n_of_brewers total_barrels taxable_removals total_shipped
    ##    <dbl> <chr>                <dbl>         <dbl>            <dbl>         <dbl>
    ##  1  2009 6,000,001 Ba…           18    171232882.       159643984.       3639970
    ##  2  2009 1,000,001 to…            4      9970404.         9592723.         14548
    ##  3  2009 500,001 to 1…            7      4831386.         4535659.         21563
    ##  4  2009 100,001 to 5…           27      5422156.         4469289.        128000
    ##  5  2009 60,001 to 10…           19      1501977.         1224618.         95732
    ##  6  2009 30,001 to 60…           32      1412245.         1233959.         14369
    ##  7  2009 15,001 to 30…           40       895133.          750529.         19808
    ##  8  2009 7,501 to 15,…           42       442754.          388968.           240
    ##  9  2009 1,001 to 7,5…          357       859935.          769155.            12
    ## 10  2009 1 to 1,000 B…         1037       400401.          371873.           123
    ## # … with 127 more rows
…
